"0","# Lo mismo que el atributo trestbps."
"0","outliers <- boxplot.stats(data$thalach)$out"
"0","print(outliers)"
"1","[1]"
"1"," 71"
"1","
"
"0","data$thalach <- ifelse(data$thalach %in% outliers, NA, data$thalach)"
"0","boxplot(data$thalach)"
