"0",""
"0","# grid arrange permite crear un contenedor para poder alojar todos"
"0","# los grafos. nrow indica el total de columnas a mostrar"
"0","# grid.arrange(trestbps_x_ca + ggtitle(""""),"
"0","#              chol_x_ca + ggtitle(""""),"
"0","#              thalach_x_ca + ggtitle(""""),"
"0","#              oldpeak_x_ca + ggtitle(""""),"
"0","#              nrow = 2,"
"0","#              top = textGrob(""Iris Frecuency Histogram"", "
"0","#                             gp=gpar(fontsize=14))"
"0","#              )"
"0",""
