"0","trestbps_x_thal <- histogramas(data2$trestbps, data2$thal, ""presion arterial en reposo"")"
"0","chol_x_thal <- histogramas(data2$chol, data2$thal, ""colesterol sérico en mg/dl"")"
"0","thalach_x_thal <- histogramas(data2$thalach, data2$thal, ""frecuencia cardíaca máxima alcanzada"")"
"0","oldpeak_x_thal <- histogramas(data2$oldpeak, data2$thal, ""ST inducido por ejercicio"", TRUE)"
"0",""
"0",""
"0","grid.arrange(trestbps_x_thal + ggtitle(""""),"
"0","             chol_x_thal + ggtitle(""""),"
"0","             thalach_x_thal + ggtitle(""""),"
"0","             oldpeak_x_thal + ggtitle(""""),"
"0","             nrow = 2,"
"0","             top = textGrob(""Resultados de exámenes frente a diferentes defectos detectados por talio"","
"0","                            gp=gpar(fontsize=14))"
"0","             )"
